{
  "name": "",
  "css_prefix_text": "icon-",
  "css_use_suffix": false,
  "hinting": true,
  "units_per_em": 1000,
  "ascent": 850,
  "glyphs": [
    {
      "uid": "1d6fb63ef52839e398240e613054d49f",
      "css": "elma-logo-brand",
      "code": 59395,
      "src": "custom_icons",
      "selected": true,
      "svg": {
        "path": "M2671 593.5C2671 673 2608.6 713.2 2543.3 713.2 2470.6 713.2 2437.1 682.4 2437.1 633.7 2437.1 579.5 2479 554.2 2539.6 554.2L2671 554.2 2671 593.5ZM2561 317.5C2482.7 317.5 2432.4 350.3 2406.3 391.4 2403.5 396.1 2401.7 400.8 2401.7 407.3 2401.7 422.3 2413.8 434.5 2428.7 434.5 2437.1 434.5 2443.6 431.7 2452.9 421.4 2481.8 388.6 2511.6 373.7 2561 373.7 2629.1 373.7 2671 413 2671 476.6L2671 501.8 2539.6 501.8C2439 501.8 2376.5 551.4 2376.5 633.7 2376.5 719.8 2439 767.5 2537.7 767.5 2593.6 767.5 2647.7 744.1 2671 700.2L2671 733.8C2671 749.7 2684 762.8 2699.9 762.8 2715.7 762.8 2728.8 749.7 2728.8 733.8L2728.8 476.6C2728.8 381.2 2669.1 317.5 2561 317.5ZM2139.5 317.5C2067.8 317.5 2026.8 346.5 2003.5 383 1981.1 345.6 1931.7 317.5 1855.3 317.5 1794.7 317.5 1750 348.4 1734.2 383L1734.2 353.1C1734.2 336.3 1721.1 323.1 1704.4 323.1 1687.6 323.1 1674.5 336.3 1674.5 353.1L1674.5 732.9C1674.5 749.7 1687.6 762.8 1704.4 762.8 1721.1 762.8 1734.2 749.7 1734.2 732.9L1734.2 501.8C1734.2 423.3 1762.1 370.9 1848.8 370.9 1940.1 370.9 1963.4 421.4 1963.4 495.3L1963.4 732.9C1963.4 749.7 1976.4 762.8 1993.2 762.8 2010 762.8 2023 749.7 2023 732.9L2023 483.1C2023 413.9 2059.4 370.9 2139.5 370.9 2229.9 370.9 2256 421.4 2256 495.3L2256 732.9C2256 749.7 2269 762.8 2285.8 762.8 2302.6 762.8 2315.6 749.7 2315.6 732.9L2315.6 483.1C2315.6 403.6 2283 317.5 2139.5 317.5ZM1591.2 706.7C1566.1 706.7 1554 690.8 1554 653.4L1554 119.2C1554 103.3 1540.9 89.3 1524.1 89.3 1508.3 89.3 1494.3 103.3 1494.3 119.2L1494.3 653.4C1494.3 725.4 1528.8 762.8 1591.2 762.8 1606.1 762.8 1619.2 750.7 1619.2 734.8 1619.2 718.9 1606.1 706.7 1591.2 706.7ZM1117.4 507.4C1122.9 424.2 1167.7 371.8 1248.7 371.8 1344.7 371.8 1368 440.1 1368 507.4L1117.4 507.4ZM1248.7 317.5C1127.6 317.5 1056.8 398 1056.8 542.1 1056.8 699.2 1134.1 767.5 1258.1 767.5 1341 767.5 1389.4 729.2 1403.4 715.1 1409 709.5 1413.7 703.9 1413.7 693.6 1413.7 678.6 1401.6 666.5 1386.7 666.5 1379.2 666.5 1375.5 668.3 1369.9 672.1 1343.8 691.7 1312.1 712.3 1258.1 712.3 1170.5 712.3 1117.4 652.4 1117.4 559.8L1389.4 559.8C1426.7 559.8 1426.7 527.1 1426.7 500 1426.7 436.4 1397.8 317.5 1248.7 317.5ZM752.5 732.5C715 745.6 679.8 746.9 674.4 747 671.1 747.1 667.9 747.2 664.6 747.2 618.6 747.2 570.8 733 526.8 706.8 479.7 734.9 428.2 749.2 379.1 747 373.8 746.9 338.5 745.6 301 732.5 286 727.3 278.2 711.1 283.6 696.5 288.9 681.8 305.4 674.2 320.5 679.4 350.8 690 380.1 690.6 380.4 690.6L381.5 690.7C413.9 692.2 446.4 684.2 476.4 669.9 420.4 620.4 384.9 556.1 381.3 497.7 377.7 457.9 391.3 418.1 418.6 388.5 446.1 358.7 485.4 341.4 526.5 341 568.2 341.4 607.5 358.7 634.9 388.5 662.3 418.1 675.9 457.9 672.2 497.7 668.6 556.1 633.1 620.4 577.2 669.9 607.2 684.2 639.6 692.1 672.1 690.7L673.2 690.6C673.4 690.6 702.7 690.1 733.1 679.4 748.1 674.2 764.6 681.8 770 696.5 775.4 711.1 767.6 727.3 752.5 732.5ZM526.8 196.4C324.6 196.4 160.7 356.3 160.7 553.6 160.7 750.8 324.6 910.7 526.8 910.7 729 910.7 892.9 750.8 892.9 553.6 892.9 356.3 729 196.4 526.8 196.4ZM614.6 493C617 468.3 609 444.6 592 426.2 575.1 407.9 551.8 397.6 526.5 397.4 501.8 397.6 478.5 407.9 461.5 426.2 444.6 444.6 436.6 468.3 438.9 493L439 494C441.9 543.3 477 598.8 526.8 638.3 576.6 598.8 611.7 543.3 614.6 494L614.6 493Z",
        "width": 2875
      },
      "search": [
        "elma-logo-brand"
      ]
    },
    {
      "uid": "7edaebb63a4daa6f911f596b628de288",
      "css": "elma-logo",
      "code": 59394,
      "src": "custom_icons",
      "selected": true,
      "svg": {
        "path": "M808.4 750.5C757.1 768.9 709 770.6 701.7 770.8 697.2 771 692.7 771.1 688.2 771.1 625.4 771.1 560.1 751.2 500 714.5 435.6 753.8 365.3 773.8 298.3 770.8 291 770.6 242.9 768.9 191.6 750.5 171.1 743.2 160.4 720.6 167.8 700.1 175.1 679.6 197.7 668.9 218.2 676.2 259.7 691.1 299.7 691.9 300.1 691.9L301.6 691.9C345.8 694.1 390.3 682.9 431.2 662.9 354.7 593.5 306.3 503.5 301.3 421.8 296.4 366 314.9 310.3 352.3 268.9 389.8 227.2 443.5 203 499.6 202.4 556.5 203 610.2 227.2 647.7 268.9 685.1 310.3 703.6 366 698.6 421.8 693.7 503.5 645.3 593.5 568.8 662.9 609.8 682.9 654.1 693.9 698.4 691.9L699.9 691.9C700.2 691.9 740.2 691.1 781.8 676.2 802.3 668.9 824.9 679.6 832.2 700.1 839.6 720.6 828.9 743.2 808.4 750.5ZM500 0C223.9 0 0 223.9 0 500 0 776.1 223.9 1000 500 1000 776.1 1000 1000 776.1 1000 500 1000 223.9 776.1 0 500 0ZM620 415.2C623.2 380.6 612.2 347.4 589.1 321.7 566 296 534.2 281.7 499.6 281.3 465.8 281.7 434 296 410.9 321.7 387.7 347.4 376.8 380.6 380 415.2L380.1 416.6C384 485.6 432 563.3 500 618.6 568 563.3 616 485.6 619.9 416.6L620 415.2Z",
        "width": 1000
      },
      "search": [
        "elma-logo"
      ]
    },
    {
      "uid": "559647a6f430b3aeadbecd67194451dd",
      "css": "menu",
      "code": 61641,
      "src": "fontawesome"
    },
    {
      "uid": "7c64b5be719a9650474bf4c9316b0bf1",
      "css": "idioma",
      "code": 59392,
      "src": "custom_icons",
      "selected": false,
      "svg": {
        "path": "",
        "width": 1000
      },
      "search": [
        "idioma"
      ]
    }
  ]
}