<svg xmlns="http://www.w3.org/2000/svg" width="20" height="20" viewBox="0 0 20 20">
    <g fill="none" fill-rule="evenodd" stroke="#A2A2A2" transform="translate(5 5)">
        <circle cx="5.5" cy="5.5" r="5.5" stroke-width=".75"/>
        <path stroke-linecap="round" stroke-linejoin="round" d="M5 3v3h3"/>
    </g>
</svg>
