<?xml version="1.0" encoding="UTF-8"?>
<svg width="161px" height="56px" viewBox="0 0 161 56" version="1.1" xmlns="http://www.w3.org/2000/svg" xmlns:xlink="http://www.w3.org/1999/xlink">
    <defs>
        <polygon id="path-1" points="0.179325503 0 93.8104228 0 93.8104228 37.9803667 0.179325503 37.9803667"></polygon>
        <polygon id="path-3" points="9.46153846e-05 9.23076923e-05 41.0000946 9.23076923e-05 41.0000946 40 9.46153846e-05 40"></polygon>
    </defs>
    <g id="Logo-Elma-negative" stroke="none" stroke-width="1" fill="none" fill-rule="evenodd">
        <g id="Page-1" transform="translate(9.000000, 5.000000)">
            <g id="Group-3" transform="translate(50.000000, 0.000000)">
                <mask id="mask-2" fill="white">
                    <use xlink:href="#path-1"></use>
                </mask>
                <g id="Clip-2"></g>
                <path d="M90.5748356,28.2362167 C90.5748356,32.6891833 87.0788557,34.9416333 83.4254732,34.9416333 C79.3560302,34.9416333 77.4772919,33.21295 77.4772919,30.4889833 C77.4772919,27.4505667 79.8257148,26.0360167 83.2172852,26.0360167 L90.5748356,26.0360167 L90.5748356,28.2362167 Z M84.4172047,12.78225 C80.0339027,12.78225 77.2157953,14.61575 75.7550101,16.9207667 C75.5982383,17.18265 75.4938289,17.44485 75.4938289,17.81155 C75.4938289,18.64945 76.1723322,19.3302833 77.0072919,19.3302833 C77.4772919,19.3302833 77.8425671,19.1735333 78.3636678,18.5972 C79.9815403,16.7640167 81.6520906,15.9254833 84.4172047,15.9254833 C88.2270436,15.9254833 90.5748356,18.1256833 90.5748356,21.6878667 L90.5748356,23.1024167 L83.2172852,23.1024167 C77.5813859,23.1024167 74.085406,25.8792667 74.085406,30.4889833 C74.085406,35.3083333 77.5813859,37.9803667 83.1128758,37.9803667 C86.243896,37.9803667 89.2705067,36.6703167 90.5748356,34.20855 L90.5748356,36.0943 C90.5748356,36.9850833 91.3053859,37.7181667 92.1923926,37.7181667 C93.0800302,37.7181667 93.8105805,36.9850833 93.8105805,36.0943 L93.8105805,21.6878667 C93.8105805,16.3444333 90.4704262,12.78225 84.4172047,12.78225 Z M60.8127953,12.78225 C56.7947685,12.78225 54.4990235,14.4064333 53.1943792,16.44925 C51.9414664,14.35355 49.1760369,12.78225 44.8971443,12.78225 C41.504943,12.78225 39.0003792,14.5109333 38.1136879,16.44925 L38.1136879,14.7731333 C38.1136879,13.8301 37.3828221,13.0963833 36.4437685,13.0963833 C35.5040839,13.0963833 34.7741644,13.8301 34.7741644,14.7731333 L34.7741644,36.04205 C34.7741644,36.9850833 35.5040839,37.7181667 36.4437685,37.7181667 C37.3828221,37.7181667 38.1136879,36.9850833 38.1136879,36.04205 L38.1136879,23.1024167 C38.1136879,18.7020167 39.6788826,15.7681 44.5318691,15.7681 C49.645406,15.7681 50.9506812,18.5972 50.9506812,22.7357167 L50.9506812,36.04205 C50.9506812,36.9850833 51.6809161,37.7181667 52.6206007,37.7181667 C53.5593389,37.7181667 54.2902047,36.9850833 54.2902047,36.04205 L54.2902047,22.0548833 C54.2902047,18.1779333 56.3253993,15.7681 60.8127953,15.7681 C65.8746007,15.7681 67.3360168,18.5972 67.3360168,22.7357167 L67.3360168,36.04205 C67.3360168,36.9850833 68.0662517,37.7181667 69.0053054,37.7181667 C69.9449899,37.7181667 70.6755403,36.9850833 70.6755403,36.04205 L70.6755403,22.0548833 C70.6755403,17.6016 68.8491644,12.78225 60.8127953,12.78225 Z M30.1094933,34.57525 C28.7010705,34.57525 28.0222517,33.6844667 28.0222517,31.5890833 L28.0222517,1.67611667 C28.0222517,0.785966667 27.2920168,0 26.3523322,0 C25.4656409,0 24.6827282,0.785966667 24.6827282,1.67611667 L24.6827282,31.5890833 C24.6827282,35.6227833 26.6135134,37.7181667 30.1094933,37.7181667 C30.9441376,37.7181667 31.6750034,37.0373333 31.6750034,36.14655 C31.6750034,35.2564 30.9441376,34.57525 30.1094933,34.57525 Z M3.57184228,23.4168667 C3.8844396,18.7542667 6.38900336,15.8209833 10.9290772,15.8209833 C16.3037953,15.8209833 17.6090705,19.64505 17.6090705,23.4168667 L3.57184228,23.4168667 Z M10.9290772,12.78225 C4.14530537,12.78225 0.179325503,17.2874667 0.179325503,25.3548667 C0.179325503,34.1559833 4.51089597,37.9803667 11.4511242,37.9803667 C16.0952919,37.9803667 18.8086745,35.8327333 19.5922181,35.04645 C19.9045,34.7323167 20.1659966,34.4181833 20.1659966,33.84185 C20.1659966,33.0036333 19.4868624,32.3224833 18.6525336,32.3224833 C18.234896,32.3224833 18.0257617,32.4273 17.7131644,32.6366167 C16.2520638,33.7370333 14.4774195,34.8897 11.4511242,34.8897 C6.54577517,34.8897 3.57184228,31.5368333 3.57184228,26.3507833 L18.8086745,26.3507833 C20.8962315,26.3507833 20.8962315,24.5172833 20.8962315,22.9979167 C20.8962315,19.4357333 19.2783591,12.78225 10.9290772,12.78225 Z" id="Fill-1" fill="#FFFFFF" mask="url(#mask-2)"></path>
            </g>
            <g id="Group-6" transform="translate(0.000000, 6.000000)">
                <mask id="mask-4" fill="white">
                    <use xlink:href="#path-3"></use>
                </mask>
                <g id="Clip-5"></g>
                <path d="M33.1426023,30.0213231 C31.0421408,30.7542462 29.0687792,30.8244 28.7682177,30.8308615 C28.5843485,30.8388615 28.3998485,30.8431692 28.2156638,30.8431692 C25.6427562,30.8431692 22.9629331,30.0471692 20.4997792,28.5810154 C17.8606408,30.1530154 14.9773946,30.9530154 12.2319715,30.8308615 C11.9317254,30.8244 9.95741769,30.7542462 7.85727154,30.0213231 C7.01582538,29.7277846 6.57807154,28.8240923 6.87894846,28.0031692 C7.17982538,27.1828615 8.10453308,26.7564 8.94755615,27.0490154 C10.6465331,27.6425538 12.2868485,27.6748615 12.3026177,27.6748615 L12.3638023,27.6770154 C14.1791562,27.7628615 16.0005023,27.3148615 17.6774023,26.5148615 C14.5440562,23.7413231 12.5565023,20.1397846 12.3549715,16.8724 C12.1506023,14.6410154 12.9116254,12.4124 14.4431331,10.7545538 C15.9825254,9.08901538 18.18391,8.12009231 20.4827485,8.09578462 C22.81691,8.12009231 25.0173485,9.08963077 26.5567408,10.7548615 C28.0888792,12.4124 28.8483254,14.6410154 28.6445869,16.8724 C28.4433715,20.1397846 26.4561331,23.7413231 23.3227869,26.5148615 C25.0006331,27.3148615 26.8178792,27.7579385 28.6363869,27.6770154 L28.6975715,27.6748615 C28.7098715,27.6748615 30.3501869,27.6431692 32.0523177,27.0490154 C32.8931331,26.7557846 33.8197331,27.1822462 34.1209254,28.0031692 C34.4218023,28.8240923 33.9837331,29.7277846 33.1426023,30.0213231 Z M20.5000946,9.23076923e-05 C9.17810231,9.23076923e-05 9.46153846e-05,8.95424615 9.46153846e-05,20.0000923 C9.46153846e-05,31.0456308 9.17810231,40.0000923 20.5000946,40.0000923 C31.8217715,40.0000923 41.0000946,31.0456308 41.0000946,20.0000923 C41.0000946,8.95424615 31.8217715,9.23076923e-05 20.5000946,9.23076923e-05 Z M25.4197792,16.6087077 C25.5522408,15.2234769 25.1018715,13.8951692 24.15351,12.8687077 C23.2042023,11.8413231 21.9004023,11.2674769 20.4827485,11.2524 C19.0994715,11.2671692 17.7959869,11.8413231 16.8463638,12.8684 C15.8976869,13.8951692 15.4476331,15.2234769 15.5797792,16.6087077 L15.5841946,16.6647077 C15.7453562,19.4225538 17.7120946,22.5314769 20.4997792,24.7434769 C23.2874638,22.5314769 25.2542023,19.4225538 25.4156792,16.6647077 L25.4197792,16.6087077 Z" id="Fill-4" fill="#FFFFFF" mask="url(#mask-4)"></path>
            </g>
        </g>
    </g>
</svg>
