<svg xmlns="http://www.w3.org/2000/svg" xmlns:xlink="http://www.w3.org/1999/xlink" width="44" height="44" viewBox="0 0 44 44">
    <defs>
        <path id="a" d="M0 0h44v44H0z"/>
    </defs>
    <g fill="none" fill-rule="evenodd">
        <mask id="b" fill="#fff">
            <use xlink:href="#a"/>
        </mask>
        <path fill="#FFF" d="M35.568 33.023a16.152 16.152 0 0 1-5.288.904c-2.761 0-5.637-.875-8.28-2.488-2.833 1.73-5.927 2.61-8.873 2.475a16.153 16.153 0 0 1-4.695-.89 1.736 1.736 0 1 1 1.17-3.27c1.823.653 3.584.688 3.6.688l.066.003c1.949.094 3.903-.399 5.703-1.279-3.363-3.05-5.496-7.012-5.712-10.606a8.895 8.895 0 0 1 2.24-6.73 8.88 8.88 0 0 1 6.482-2.925A8.899 8.899 0 0 1 28.5 11.83a8.894 8.894 0 0 1 2.24 6.73c-.216 3.594-2.348 7.555-5.71 10.606 1.8.88 3.75 1.368 5.702 1.279l.065-.003c.013 0 1.774-.035 3.6-.688a1.737 1.737 0 0 1 1.17 3.27zM22 0C9.85 0 0 9.85 0 22s9.85 22 22 22 22-9.85 22-22S34.15 0 22 0zm5.28 18.27a5.337 5.337 0 0 0-1.36-4.115 5.326 5.326 0 0 0-3.939-1.777 5.307 5.307 0 0 0-3.902 1.777 5.338 5.338 0 0 0-1.36 4.114l.005.062c.173 3.034 2.284 6.454 5.276 8.887 2.991-2.433 5.102-5.853 5.275-8.887l.005-.062z" mask="url(#b)"/>
    </g>
</svg>
